<svg width="25" height="25" viewBox="0 0 25 25" fill="none" xmlns="http://www.w3.org/2000/svg">
<path d="M12.5 25C19.4036 25 25 19.4036 25 12.5C25 5.59644 19.4036 0 12.5 0C5.59644 0 0 5.59644 0 12.5C0 19.4036 5.59644 25 12.5 25Z" fill="#D22215"/>
<path d="M18.7916 8.31738C18.4167 8.43179 18.0258 8.53008 17.6344 8.62798C14.8566 9.21719 11.1529 7.61787 9.55356 10.2273C8.21973 12.3022 7.79858 14.8986 6.28125 16.7538L14.3859 24.8584C19.7799 24.042 24.0428 19.7786 24.8584 14.3843L18.7916 8.31738Z" fill="#A81411"/>
<path d="M16.6811 7.43799H8.31699C6.67598 7.43799 5.3457 8.76831 5.3457 10.4093V14.5905C5.3457 16.2315 6.67603 17.5618 8.31699 17.5618H16.6811C18.3222 17.5618 19.6524 16.2315 19.6524 14.5905V10.4093C19.6524 8.76831 18.3221 7.43799 16.6811 7.43799ZM14.6716 12.7033L10.7595 14.5691C10.6552 14.6189 10.5348 14.543 10.5348 14.4275V10.5792C10.5348 10.462 10.6584 10.386 10.7628 10.439L14.6749 12.4215C14.7914 12.4804 14.7893 12.6473 14.6716 12.7033Z" fill="white"/>
<path d="M16.6823 7.43799H12.416V11.2761L14.6761 12.4214C14.7925 12.4804 14.7904 12.6472 14.6728 12.7033L12.416 13.7796V17.5618H16.6823C18.3233 17.5618 19.6536 16.2315 19.6536 14.5905V10.4093C19.6536 8.76831 18.3232 7.43799 16.6823 7.43799Z" fill="#D1D1D1"/>
</svg>
