<svg width="34" height="34" viewBox="0 0 34 34" fill="none" xmlns="http://www.w3.org/2000/svg">
<path d="M16.9997 0C7.62605 0 0 7.62615 0 17.0001C0 26.374 7.62605 34.0001 16.9997 34.0001C19.3893 34.0001 21.7007 33.5137 23.8697 32.5546C24.4569 32.295 24.7224 31.6084 24.4627 31.0211C24.2029 30.4338 23.5162 30.1686 22.9292 30.4281C21.0584 31.2554 19.0634 31.675 16.9997 31.675C8.90814 31.675 2.32511 25.0919 2.32511 17.0001C2.32511 8.90824 8.90814 2.32511 16.9997 2.32511C25.0915 2.32511 31.6748 8.90824 31.6748 17.0001C31.6748 18.5335 31.4394 20.0442 30.9756 21.4901C29.9762 24.6034 28.3342 25.5641 27.5351 25.4398C26.7688 25.3197 26.7093 24.1738 26.7093 23.8254V10.018C26.7093 9.37591 26.1888 8.8554 25.5467 8.8554C24.9047 8.8554 24.3842 9.37591 24.3842 10.018V10.7021C22.602 8.61517 19.9528 7.29039 16.9998 7.29039C11.646 7.29039 7.29018 11.6462 7.29018 17.0001C7.29018 22.3539 11.646 26.7097 16.9998 26.7097C19.9528 26.7097 22.602 25.3849 24.3842 23.298V23.8254C24.3842 25.9361 25.4798 27.4714 27.1756 27.737C29.1824 28.0505 31.8218 26.4617 33.1894 22.2006C33.7272 20.5247 33.9999 18.775 33.9999 17.0001C33.9998 7.62615 26.3736 0 16.9997 0ZM16.9997 24.3846C12.9279 24.3846 9.61518 21.0719 9.61518 17.0001C9.61518 12.9283 12.9279 9.6155 16.9997 9.6155C21.0714 9.6155 24.3841 12.9283 24.3841 17.0001C24.3841 21.0719 21.0714 24.3846 16.9997 24.3846Z" fill="#224B5C"/>
</svg>
